{
    "options": {
    "predef": {
    "jQuery": false,
    "$": false
    },
    "browser": true,
    "unparam": true
    },
    "ignore": [
    "\\UI\\vendor\\"
    ],
    "output": "Warning",
    "runOnSave": true,
    "runOnBuild": true,
    "cancelBuild": false
   }